{
    "chart": {
        "type": "line"
    },
    "title": {
        "align": "left",
        "text": ""
    },
    "subtitle": {
        "text": "",
        "verticalAlign": "bottom",
        "align": "left",
        "x": 0,
        "y": -40,
        "floating": false,
        "useHTML": false
    },
    "credits": {
        "enabled": true,
        "text": "Quelle: Wasserstatistik, Amt für Umweltschutz und Energie Basel-Landschaft;<br/> Kantonale Bevölkerungsstatistik, Statistisches Amt Basel-Landschaft",
        "href": "http://www.statistik.bl.ch",
        "position": {
            "align": "left",
            "x": 10,
            "y": -20
        }
    },
    "exporting": {
        "filename": "Abbildung_Statistisches_Amt",
        "buttons": {
            "contextButton": {
                "menuItems": [
                    "printChart",
                    "separator",
                    "downloadPNG",
                    "downloadJPEG",
                    "downloadPDF",
                    "downloadCSV"
                ]
            }
        }
    },
    "lang": {
        "downloadJPEG": "Download JPEG",
        "downloadPNG": "Download PNG",
        "downloadPDF": "Download PDF",
        "downloadCSV": "Download CSV",
        "printChart": "Grafik drucken",
        "contextButtonTitle": "Export"
    },
    "xAxis": {
        "categories": "",
        "tickWidth": 0,
        "title": {
            "text": "Jahr",
            "enabled": false
        }
    },
    "yAxis": {
        "stackLabels": {
            "enabled": false
        },
        "title": {
            "text": "Prozent"
        },
        "labels": {
            "format": "{value:,.0f}"
        }
    },
    "tooltip": {
        "headerFormat": "<b>{point.x}</b><br/>",
        "pointFormat": "{series.name}: {point.y:,.0f}<br/> Total: {point.stackTotal:,.0f}"
    },
    "plotOptions": {
        "column": {
            "stacking": "normal",
            "dataLabels": {
                "enabled": false
            }
        },
        "series": {
            "pointStart": 2000,
            "marker": {
                "enabled": false
            }
        }
    },
    "series": "",
    "legend": {
        "symbolRadius": 0,
        "y": -60
    }     
}