{
    "gebiet": [
        {
            "id": 2783,
            "name": "Burg im Leimental"
        },
        {
            "id": 2844,
            "name": "Buus"
        },
        {
            "id": 2882,
            "name": "Bennwil"
        },
        {
            "id": 2790,
            "name": "Roggenburg"
        },
        {
            "id": 2850,
            "name": "Känerkinden"
        },
        {
            "id": 2892,
            "name": "Oberdorf (BL)"
        },
        {
            "id": 2854,
            "name": "Nusshof"
        },
        {
            "id": 2842,
            "name": "Böckten"
        },
        {
            "id": 2856,
            "name": "Ormalingen"
        },
        {
            "id": 2785,
            "name": "Duggingen"
        },
        {
            "id": 2894,
            "name": "Titterten"
        },
        {
            "id": 2860,
            "name": "Rünenberg"
        },
        {
            "id": 2864,
            "name": "Thürnen"
        },
        {
            "id": 2847,
            "name": "Häfelfingen"
        },
        {
            "id": 2826,
            "name": "Giebenach"
        },
        {
            "id": 2848,
            "name": "Hemmiken"
        },
        {
            "id": 2822,
            "name": "Augst"
        },
        {
            "id": 2788,
            "name": "Liesberg"
        },
        {
            "id": 2845,
            "name": "Diepflingen"
        },
        {
            "id": 2821,
            "name": "Arisdorf"
        },
        {
            "id": 2834,
            "name": "Ziefen"
        },
        {
            "id": 2791,
            "name": "Röschenz"
        },
        {
            "id": 2774,
            "name": "Schönenbuch"
        },
        {
            "id": 2841,
            "name": "Anwil"
        },
        {
            "id": 2763,
            "name": "Arlesheim"
        },
        {
            "id": 2764,
            "name": "Biel-Benken"
        },
        {
            "id": 2768,
            "name": "Ettingen"
        },
        {
            "id": 2849,
            "name": "Itingen"
        },
        {
            "id": 2765,
            "name": "Binningen"
        },
        {
            "id": 2827,
            "name": "Hersberg"
        },
        {
            "id": 2766,
            "name": "Birsfelden"
        },
        {
            "id": 2827,
            "name": "Hersberg"
        },
        {
            "id": 2828,
            "name": "Lausen"
        },
        {
            "id": 2767,
            "name": "Bottmingen"
        },
        {
            "id": 2792,
            "name": "Wahlen"
        },
        {
            "id": 2769,
            "name": "Münchenstein"
        },
        {
            "id": 2770,
            "name": "Muttenz"
        },
        {
            "id": 2771,
            "name": "Oberwil (BL)"
        },
        {
            "id": 2833,
            "name": "Seltisberg"
        },
        {
            "id": 2887,
            "name": "Lampenberg"
        },
        {
            "id": 2775,
            "name": "Therwil"
        },
        {
            "id": 2824,
            "name": "Frenkendorf"
        },
        {
            "id": 2843,
            "name": "Buckten"
        },
        {
            "id": 2825,
            "name": "Füllinsdorf"
        },
        {
            "id": 2830,
            "name": "Lupsingen"
        },
        {
            "id": 2829,
            "name": "Liestal"
        },
        {
            "id": 2831,
            "name": "Pratteln"
        },
        {
            "id": 2889,
            "name": "Lauwil"
        },
        {
            "id": 2888,
            "name": "Langenbruck"
        },
        {
            "id": 2863,
            "name": "Tenniken"
        },
        {
            "id": 2781,
            "name": "Blauen"
        },
        {
            "id": 2886,
            "name": "Hölstein"
        },
        {
            "id": 2881,
            "name": "Arboldswil"
        },
        {
            "id": 2846,
            "name": "Gelterkinden"
        },
        {
            "id": 2786,
            "name": "Grellingen"
        },
        {
            "id": 2895,
            "name": "Waldenburg"
        },
        {
            "id": 2832,
            "name": "Ramlinsburg"
        },
        {
            "id": 2762,
            "name": "Allschwil"
        },
        {
            "id": 2883,
            "name": "Bretzwil"
        },
        {
            "id": 2868,
            "name": "Zeglingen"
        },
        {
            "id": 2787,
            "name": "Laufen"
        },
        {
            "id": 2851,
            "name": "Kilchberg (BL)"
        },
        {
            "id": 2867,
            "name": "Wittinsburg"
        },
        {
            "id": 2789,
            "name": "Nenzlingen"
        },
        {
            "id": 2784,
            "name": "Dittingen"
        },
        {
            "id": 2855,
            "name": "Oltingen"
        },
        {
            "id": 2858,
            "name": "Rothenfluh"
        },
        {
            "id": 2890,
            "name": "Liedertswil"
        },
        {
            "id": 2782,
            "name": "Brislach"
        },
        {
            "id": 2793,
            "name": "Zwingen"
        },
        {
            "id": 2862,
            "name": "Tecknau"
        },
        {
            "id": 2772,
            "name": "Pfeffingen"
        },
        {
            "id": 2865,
            "name": "Wenslingen"
        },
        {
            "id": 2869,
            "name": "Zunzgen"
        },
        {
            "id": 2866,
            "name": "Wintersingen"
        },
        {
            "id": 2859,
            "name": "Rümlingen"
        },
        {
            "id": 2893,
            "name": "Reigoldswil"
        },
        {
            "id": 2853,
            "name": "Maisprach"
        },
        {
            "id": 2884,
            "name": "Diegten"
        },
        {
            "id": 2761,
            "name": "Aesch (BL)"
        },
        {
            "id": 2773,
            "name": "Reinach (BL)"
        },
        {
            "id": 2823,
            "name": "Bubendorf"
        },
        {
            "id": 2861,
            "name": "Sissach"
        },
        {
            "id": 2885,
            "name": "Eptingen"
        },
        {
            "id": 2891,
            "name": "Niederdorf"
        },
        {
            "id": 2852,
            "name": "Läufelfingen"
        },
        {
            "id": 2857,
            "name": "Rickenbach (BL)"
        }
    ]
}
