{
    "gebiet": [{
        "wasserwerk": [{
            "id": 1000,
            "name": "Hardwasser_AG"
            }, {
            "id": 1001,
            "name": "Reinach_und_Umgebung"
            }, {
            "id": 1002,
            "name": "Zweckverband_Aesch-Dornach-Pfeffingen"
        }]
        }, {
        "testobjekte": [{
                "id": 1003,
                "name": "Amt für Geoinformation"
            }, {
                "id": 1004,
                "name": "GIS-Fachstelle"
            }]
        }]
}
