{
    "themen": [{
        "thema": "wasserstatistik",
        "variante": [{
            "name": "wassergewinnung"
        },{
            "name": "wasserverbrauch"
        }, {
            "name": "spezifischer_wasserverbrauch"
        }, {
            "name": "wasserverluste"
        }, {
            "name": "fremdwasserabgabe"
        },{
            "name": "fremdwasserbezug"
        }, {
            "name": "bevoelkerungsstand"
        }]
    }, {
        "thema": "wasserwerk",
        "variante": [{
            "name": "wassergewinnung"
        },{
            "name": "wasserabgabe"
        }]	
	}]
}